%!PS-Adobe-3.0 EPSF-3.0
%%Title: Adv_features.eps
%%Creator: matplotlib version 2.0.0, http://matplotlib.org/
%%CreationDate: Sun Jun 25 11:01:37 2017
%%Orientation: portrait
%%BoundingBox: -270 -108 882 900
%%EndComments
%%BeginProlog
/mpldict 8 dict def
mpldict begin
/m { moveto } bind def
/l { lineto } bind def
/r { rlineto } bind def
/c { curveto } bind def
/cl { closepath } bind def
/box {
m
1 index 0 r
0 exch r
neg 0 r
cl
} bind def
/clipbox {
box
clip
newpath
} bind def
%!PS-Adobe-3.0 Resource-Font
%%Title: DejaVu Sans
%%Copyright: Copyright (c) 2003 by Bitstream, Inc. All Rights Reserved. Copyright (c) 2006 by Tavmjong Bah. All Rights Reserved. DejaVu changes are in public domain 
%%Creator: Converted from TrueType to type 3 by PPR
25 dict begin
/_d{bind def}bind def
/_m{moveto}_d
/_l{lineto}_d
/_cl{closepath eofill}_d
/_c{curveto}_d
/_sc{7 -1 roll{setcachedevice}{pop pop pop pop pop pop}ifelse}_d
/_e{exec}_d
/FontName /DejaVuSans def
/PaintType 0 def
/FontMatrix[.001 0 0 .001 0 0]def
/FontBBox[-1021 -463 1793 1232]def
/FontType 3 def
/Encoding [ /space /percent /parenleft /parenright /zero /one /two /three /four /five /six /F /P /S /underscore /a /b /c /d /e /f /g /h /i /l /m /n /o /p /q /r /s /t /u /v /x /y ] def
/FontInfo 10 dict dup begin
/FamilyName (DejaVu Sans) def
/FullName (DejaVu Sans) def
/Notice (Copyright (c) 2003 by Bitstream, Inc. All Rights Reserved. Copyright (c) 2006 by Tavmjong Bah. All Rights Reserved. DejaVu changes are in public domain ) def
/Weight (Book) def
/Version (Version 2.35) def
/ItalicAngle 0.0 def
/isFixedPitch false def
/UnderlinePosition -130 def
/UnderlineThickness 90 def
end readonly def
/CharStrings 37 dict dup begin
/space{318 0 0 0 0 0 _sc
}_d
/percent{{950 0 55 -13 895 742 _sc
727 321 _m
699 321 676 309 660 285 _c
644 261 636 227 636 184 _c
636 142 644 108 660 84 _c
676 60 699 48 727 48 _c
755 48 777 60 793 84 _c
809 108 817 142 817 184 _c
817 226 809 260 793 284 _c
777 308 755 321 727 321 _c
727 383 _m
778 383 819 365 849 329 _c
879 293 895 244 895 184 _c
895 123 879 75 849 40 _c
819 4 778 -13 727 -13 _c
}_e{675 -13 633 4 603 40 _c
573 75 558 123 558 184 _c
558 245 573 293 603 329 _c
633 365 675 383 727 383 _c
223 680 _m
195 680 173 667 157 643 _c
141 619 133 586 133 544 _c
133 500 141 467 157 443 _c
173 419 195 407 223 407 _c
251 407 274 419 290 443 _c
306 467 314 500 314 544 _c
314 586 305 619 289 643 _c
273 667 251 680 223 680 _c
664 742 _m
742 742 _l
286 -13 _l
}_e{208 -13 _l
664 742 _l
223 742 _m
274 742 315 724 346 688 _c
376 652 392 604 392 544 _c
392 482 376 434 346 398 _c
316 362 275 345 223 345 _c
171 345 130 362 100 398 _c
70 434 55 482 55 544 _c
55 604 70 652 100 688 _c
130 724 171 742 223 742 _c
_cl}_e}_d
/parenleft{390 0 86 -131 310 759 _sc
310 759 _m
266 683 234 609 213 536 _c
191 463 181 389 181 314 _c
181 238 191 164 213 91 _c
234 17 266 -56 310 -131 _c
232 -131 _l
183 -54 146 20 122 94 _c
98 168 86 241 86 314 _c
86 386 98 459 122 533 _c
146 607 182 682 232 759 _c
310 759 _l
_cl}_d
/parenright{390 0 80 -131 304 759 _sc
80 759 _m
158 759 _l
206 682 243 607 267 533 _c
291 459 304 386 304 314 _c
304 241 291 168 267 94 _c
243 20 206 -54 158 -131 _c
80 -131 _l
123 -56 155 17 177 91 _c
198 164 209 238 209 314 _c
209 389 198 463 177 536 _c
155 609 123 683 80 759 _c
_cl}_d
/zero{636 0 66 -13 570 742 _sc
318 664 _m
267 664 229 639 203 589 _c
177 539 165 464 165 364 _c
165 264 177 189 203 139 _c
229 89 267 64 318 64 _c
369 64 407 89 433 139 _c
458 189 471 264 471 364 _c
471 464 458 539 433 589 _c
407 639 369 664 318 664 _c
318 742 _m
399 742 461 709 505 645 _c
548 580 570 486 570 364 _c
570 241 548 147 505 83 _c
461 19 399 -13 318 -13 _c
236 -13 173 19 130 83 _c
87 147 66 241 66 364 _c
66 486 87 580 130 645 _c
173 709 236 742 318 742 _c
_cl}_d
/one{636 0 110 0 544 729 _sc
124 83 _m
285 83 _l
285 639 _l
110 604 _l
110 694 _l
284 729 _l
383 729 _l
383 83 _l
544 83 _l
544 0 _l
124 0 _l
124 83 _l
_cl}_d
/two{{636 0 73 0 536 742 _sc
192 83 _m
536 83 _l
536 0 _l
73 0 _l
73 83 _l
110 121 161 173 226 239 _c
290 304 331 346 348 365 _c
380 400 402 430 414 455 _c
426 479 433 504 433 528 _c
433 566 419 598 392 622 _c
365 646 330 659 286 659 _c
255 659 222 653 188 643 _c
154 632 117 616 78 594 _c
78 694 _l
118 710 155 722 189 730 _c
223 738 255 742 284 742 _c
}_e{359 742 419 723 464 685 _c
509 647 532 597 532 534 _c
532 504 526 475 515 449 _c
504 422 484 390 454 354 _c
446 344 420 317 376 272 _c
332 227 271 164 192 83 _c
_cl}_e}_d
/three{{636 0 76 -13 556 742 _sc
406 393 _m
453 383 490 362 516 330 _c
542 298 556 258 556 212 _c
556 140 531 84 482 45 _c
432 6 362 -13 271 -13 _c
240 -13 208 -10 176 -4 _c
144 1 110 10 76 22 _c
76 117 _l
103 101 133 89 166 81 _c
198 73 232 69 268 69 _c
330 69 377 81 409 105 _c
441 129 458 165 458 212 _c
458 254 443 288 413 312 _c
383 336 341 349 287 349 _c
}_e{202 349 _l
202 430 _l
291 430 _l
339 430 376 439 402 459 _c
428 478 441 506 441 543 _c
441 580 427 609 401 629 _c
374 649 336 659 287 659 _c
260 659 231 656 200 650 _c
169 644 135 635 98 623 _c
98 711 _l
135 721 170 729 203 734 _c
235 739 266 742 296 742 _c
370 742 429 725 473 691 _c
517 657 539 611 539 553 _c
539 513 527 479 504 451 _c
481 423 448 403 406 393 _c
_cl}_e}_d
/four{636 0 49 0 580 729 _sc
378 643 _m
129 254 _l
378 254 _l
378 643 _l
352 729 _m
476 729 _l
476 254 _l
580 254 _l
580 172 _l
476 172 _l
476 0 _l
378 0 _l
378 172 _l
49 172 _l
49 267 _l
352 729 _l
_cl}_d
/five{{636 0 77 -13 549 729 _sc
108 729 _m
495 729 _l
495 646 _l
198 646 _l
198 467 _l
212 472 227 476 241 478 _c
255 480 270 482 284 482 _c
365 482 429 459 477 415 _c
525 370 549 310 549 234 _c
549 155 524 94 475 51 _c
426 8 357 -13 269 -13 _c
238 -13 207 -10 175 -6 _c
143 -1 111 6 77 17 _c
77 116 _l
106 100 136 88 168 80 _c
199 72 232 69 267 69 _c
}_e{323 69 368 83 401 113 _c
433 143 450 183 450 234 _c
450 284 433 324 401 354 _c
368 384 323 399 267 399 _c
241 399 214 396 188 390 _c
162 384 135 375 108 363 _c
108 729 _l
_cl}_e}_d
/six{{636 0 70 -13 573 742 _sc
330 404 _m
286 404 251 388 225 358 _c
199 328 186 286 186 234 _c
186 181 199 139 225 109 _c
251 79 286 64 330 64 _c
374 64 409 79 435 109 _c
461 139 474 181 474 234 _c
474 286 461 328 435 358 _c
409 388 374 404 330 404 _c
526 713 _m
526 623 _l
501 635 476 644 451 650 _c
425 656 400 659 376 659 _c
310 659 260 637 226 593 _c
}_e{192 549 172 482 168 394 _c
187 422 211 444 240 459 _c
269 474 301 482 336 482 _c
409 482 467 459 509 415 _c
551 371 573 310 573 234 _c
573 159 550 99 506 54 _c
462 9 403 -13 330 -13 _c
246 -13 181 19 137 83 _c
92 147 70 241 70 364 _c
70 479 97 571 152 639 _c
206 707 280 742 372 742 _c
396 742 421 739 447 735 _c
472 730 498 723 526 713 _c
_cl}_e}_d
/F{575 0 98 0 517 729 _sc
98 729 _m
517 729 _l
517 646 _l
197 646 _l
197 431 _l
486 431 _l
486 348 _l
197 348 _l
197 0 _l
98 0 _l
98 729 _l
_cl}_d
/P{603 0 98 0 569 729 _sc
197 648 _m
197 374 _l
321 374 _l
367 374 402 385 427 409 _c
452 433 465 467 465 511 _c
465 555 452 588 427 612 _c
402 636 367 648 321 648 _c
197 648 _l
98 729 _m
321 729 _l
402 729 464 710 506 673 _c
548 636 569 582 569 511 _c
569 439 548 384 506 348 _c
464 311 402 293 321 293 _c
197 293 _l
197 0 _l
98 0 _l
98 729 _l
_cl}_d
/S{{635 0 66 -13 579 742 _sc
535 705 _m
535 609 _l
497 627 462 640 429 649 _c
395 657 363 662 333 662 _c
279 662 237 651 208 631 _c
179 610 165 580 165 542 _c
165 510 174 485 194 469 _c
213 452 250 439 304 429 _c
364 417 _l
437 403 491 378 526 343 _c
561 307 579 260 579 201 _c
579 130 555 77 508 41 _c
460 5 391 -13 300 -13 _c
265 -13 228 -9 189 -2 _c
}_e{150 5 110 16 69 32 _c
69 134 _l
109 111 148 94 186 83 _c
224 71 262 66 300 66 _c
356 66 399 77 430 99 _c
460 121 476 152 476 194 _c
476 230 465 258 443 278 _c
421 298 385 313 335 323 _c
275 335 _l
201 349 148 372 115 404 _c
82 435 66 478 66 534 _c
66 598 88 649 134 686 _c
179 723 242 742 322 742 _c
356 742 390 739 426 733 _c
461 727 497 717 535 705 _c
}_e{_cl}_e}_d
/underscore{500 0 -9 -235 510 -165 _sc
510 -165 _m
510 -235 _l
-9 -235 _l
-9 -165 _l
510 -165 _l
_cl}_d
/a{{613 0 60 -13 522 560 _sc
343 275 _m
270 275 220 266 192 250 _c
164 233 150 205 150 165 _c
150 133 160 107 181 89 _c
202 70 231 61 267 61 _c
317 61 357 78 387 114 _c
417 149 432 196 432 255 _c
432 275 _l
343 275 _l
522 312 _m
522 0 _l
432 0 _l
432 83 _l
411 49 385 25 355 10 _c
325 -5 287 -13 243 -13 _c
187 -13 142 2 109 33 _c
76 64 60 106 60 159 _c
}_e{60 220 80 266 122 298 _c
163 329 224 345 306 345 _c
432 345 _l
432 354 _l
432 395 418 427 391 450 _c
364 472 326 484 277 484 _c
245 484 215 480 185 472 _c
155 464 127 453 100 439 _c
100 522 _l
132 534 164 544 195 550 _c
226 556 256 560 286 560 _c
365 560 424 539 463 498 _c
502 457 522 395 522 312 _c
_cl}_e}_d
/b{{635 0 91 -13 580 760 _sc
487 273 _m
487 339 473 390 446 428 _c
418 466 381 485 334 485 _c
286 485 249 466 222 428 _c
194 390 181 339 181 273 _c
181 207 194 155 222 117 _c
249 79 286 61 334 61 _c
381 61 418 79 446 117 _c
473 155 487 207 487 273 _c
181 464 _m
199 496 223 520 252 536 _c
281 552 316 560 356 560 _c
422 560 476 533 518 481 _c
559 428 580 359 580 273 _c
}_e{580 187 559 117 518 65 _c
476 13 422 -13 356 -13 _c
316 -13 281 -5 252 10 _c
223 25 199 49 181 82 _c
181 0 _l
91 0 _l
91 760 _l
181 760 _l
181 464 _l
_cl}_e}_d
/c{{550 0 55 -13 488 560 _sc
488 526 _m
488 442 _l
462 456 437 466 411 473 _c
385 480 360 484 334 484 _c
276 484 230 465 198 428 _c
166 391 150 339 150 273 _c
150 206 166 154 198 117 _c
230 80 276 62 334 62 _c
360 62 385 65 411 72 _c
437 79 462 90 488 104 _c
488 21 _l
462 9 436 0 410 -5 _c
383 -10 354 -13 324 -13 _c
242 -13 176 12 128 64 _c
}_e{79 115 55 185 55 273 _c
55 362 79 432 128 483 _c
177 534 244 560 330 560 _c
358 560 385 557 411 551 _c
437 545 463 537 488 526 _c
_cl}_e}_d
/d{{635 0 55 -13 544 760 _sc
454 464 _m
454 760 _l
544 760 _l
544 0 _l
454 0 _l
454 82 _l
435 49 411 25 382 10 _c
353 -5 319 -13 279 -13 _c
213 -13 159 13 117 65 _c
75 117 55 187 55 273 _c
55 359 75 428 117 481 _c
159 533 213 560 279 560 _c
319 560 353 552 382 536 _c
411 520 435 496 454 464 _c
148 273 _m
148 207 161 155 188 117 _c
215 79 253 61 301 61 _c
}_e{348 61 385 79 413 117 _c
440 155 454 207 454 273 _c
454 339 440 390 413 428 _c
385 466 348 485 301 485 _c
253 485 215 466 188 428 _c
161 390 148 339 148 273 _c
_cl}_e}_d
/e{{615 0 55 -13 562 560 _sc
562 296 _m
562 252 _l
149 252 _l
153 190 171 142 205 110 _c
238 78 284 62 344 62 _c
378 62 412 66 444 74 _c
476 82 509 95 541 113 _c
541 28 _l
509 14 476 3 442 -3 _c
408 -9 373 -13 339 -13 _c
251 -13 182 12 131 62 _c
80 112 55 181 55 268 _c
55 357 79 428 127 481 _c
175 533 241 560 323 560 _c
397 560 455 536 498 489 _c
}_e{540 441 562 377 562 296 _c
472 322 _m
471 371 457 410 431 440 _c
404 469 368 484 324 484 _c
274 484 234 469 204 441 _c
174 413 156 373 152 322 _c
472 322 _l
_cl}_e}_d
/f{352 0 23 0 371 760 _sc
371 760 _m
371 685 _l
285 685 _l
253 685 230 678 218 665 _c
205 652 199 629 199 595 _c
199 547 _l
347 547 _l
347 477 _l
199 477 _l
199 0 _l
109 0 _l
109 477 _l
23 477 _l
23 547 _l
109 547 _l
109 585 _l
109 645 123 690 151 718 _c
179 746 224 760 286 760 _c
371 760 _l
_cl}_d
/g{{635 0 55 -207 544 560 _sc
454 280 _m
454 344 440 395 414 431 _c
387 467 349 485 301 485 _c
253 485 215 467 188 431 _c
161 395 148 344 148 280 _c
148 215 161 165 188 129 _c
215 93 253 75 301 75 _c
349 75 387 93 414 129 _c
440 165 454 215 454 280 _c
544 68 _m
544 -24 523 -93 482 -139 _c
440 -184 377 -207 292 -207 _c
260 -207 231 -204 203 -200 _c
175 -195 147 -188 121 -178 _c
}_e{121 -91 _l
147 -105 173 -115 199 -122 _c
225 -129 251 -133 278 -133 _c
336 -133 380 -117 410 -87 _c
439 -56 454 -10 454 52 _c
454 96 _l
435 64 411 40 382 24 _c
353 8 319 0 279 0 _c
211 0 157 25 116 76 _c
75 127 55 195 55 280 _c
55 364 75 432 116 483 _c
157 534 211 560 279 560 _c
319 560 353 552 382 536 _c
411 520 435 496 454 464 _c
454 547 _l
544 547 _l
}_e{544 68 _l
_cl}_e}_d
/h{634 0 91 0 549 760 _sc
549 330 _m
549 0 _l
459 0 _l
459 327 _l
459 379 448 417 428 443 _c
408 469 378 482 338 482 _c
289 482 251 466 223 435 _c
195 404 181 362 181 309 _c
181 0 _l
91 0 _l
91 760 _l
181 760 _l
181 462 _l
202 494 227 519 257 535 _c
286 551 320 560 358 560 _c
420 560 468 540 500 501 _c
532 462 549 405 549 330 _c
_cl}_d
/i{278 0 94 0 184 760 _sc
94 547 _m
184 547 _l
184 0 _l
94 0 _l
94 547 _l
94 760 _m
184 760 _l
184 646 _l
94 646 _l
94 760 _l
_cl}_d
/l{278 0 94 0 184 760 _sc
94 760 _m
184 760 _l
184 0 _l
94 0 _l
94 760 _l
_cl}_d
/m{{974 0 91 0 889 560 _sc
520 442 _m
542 482 569 511 600 531 _c
631 550 668 560 711 560 _c
767 560 811 540 842 500 _c
873 460 889 403 889 330 _c
889 0 _l
799 0 _l
799 327 _l
799 379 789 418 771 444 _c
752 469 724 482 686 482 _c
639 482 602 466 575 435 _c
548 404 535 362 535 309 _c
535 0 _l
445 0 _l
445 327 _l
445 379 435 418 417 444 _c
398 469 369 482 331 482 _c
}_e{285 482 248 466 221 435 _c
194 404 181 362 181 309 _c
181 0 _l
91 0 _l
91 547 _l
181 547 _l
181 462 _l
201 495 226 520 255 536 _c
283 552 317 560 357 560 _c
397 560 430 550 458 530 _c
486 510 506 480 520 442 _c
_cl}_e}_d
/n{634 0 91 0 549 560 _sc
549 330 _m
549 0 _l
459 0 _l
459 327 _l
459 379 448 417 428 443 _c
408 469 378 482 338 482 _c
289 482 251 466 223 435 _c
195 404 181 362 181 309 _c
181 0 _l
91 0 _l
91 547 _l
181 547 _l
181 462 _l
202 494 227 519 257 535 _c
286 551 320 560 358 560 _c
420 560 468 540 500 501 _c
532 462 549 405 549 330 _c
_cl}_d
/o{612 0 55 -13 557 560 _sc
306 484 _m
258 484 220 465 192 427 _c
164 389 150 338 150 273 _c
150 207 163 156 191 118 _c
219 80 257 62 306 62 _c
354 62 392 80 420 118 _c
448 156 462 207 462 273 _c
462 337 448 389 420 427 _c
392 465 354 484 306 484 _c
306 560 _m
384 560 445 534 490 484 _c
534 433 557 363 557 273 _c
557 183 534 113 490 63 _c
445 12 384 -13 306 -13 _c
227 -13 165 12 121 63 _c
77 113 55 183 55 273 _c
55 363 77 433 121 484 _c
165 534 227 560 306 560 _c
_cl}_d
/p{{635 0 91 -207 580 560 _sc
181 82 _m
181 -207 _l
91 -207 _l
91 547 _l
181 547 _l
181 464 _l
199 496 223 520 252 536 _c
281 552 316 560 356 560 _c
422 560 476 533 518 481 _c
559 428 580 359 580 273 _c
580 187 559 117 518 65 _c
476 13 422 -13 356 -13 _c
316 -13 281 -5 252 10 _c
223 25 199 49 181 82 _c
487 273 _m
487 339 473 390 446 428 _c
418 466 381 485 334 485 _c
}_e{286 485 249 466 222 428 _c
194 390 181 339 181 273 _c
181 207 194 155 222 117 _c
249 79 286 61 334 61 _c
381 61 418 79 446 117 _c
473 155 487 207 487 273 _c
_cl}_e}_d
/q{{635 0 55 -207 544 560 _sc
148 273 _m
148 207 161 155 188 117 _c
215 79 253 61 301 61 _c
348 61 385 79 413 117 _c
440 155 454 207 454 273 _c
454 339 440 390 413 428 _c
385 466 348 485 301 485 _c
253 485 215 466 188 428 _c
161 390 148 339 148 273 _c
454 82 _m
435 49 411 25 382 10 _c
353 -5 319 -13 279 -13 _c
213 -13 159 13 117 65 _c
75 117 55 187 55 273 _c
}_e{55 359 75 428 117 481 _c
159 533 213 560 279 560 _c
319 560 353 552 382 536 _c
411 520 435 496 454 464 _c
454 547 _l
544 547 _l
544 -207 _l
454 -207 _l
454 82 _l
_cl}_e}_d
/r{411 0 91 0 411 560 _sc
411 463 _m
401 469 390 473 378 476 _c
366 478 353 480 339 480 _c
288 480 249 463 222 430 _c
194 397 181 350 181 288 _c
181 0 _l
91 0 _l
91 547 _l
181 547 _l
181 462 _l
199 495 224 520 254 536 _c
284 552 321 560 365 560 _c
371 560 378 559 386 559 _c
393 558 401 557 411 555 _c
411 463 _l
_cl}_d
/s{{521 0 54 -13 472 560 _sc
443 531 _m
443 446 _l
417 458 391 468 364 475 _c
336 481 308 485 279 485 _c
234 485 200 478 178 464 _c
156 450 145 430 145 403 _c
145 382 153 366 169 354 _c
185 342 217 330 265 320 _c
296 313 _l
360 299 405 279 432 255 _c
458 230 472 195 472 151 _c
472 100 452 60 412 31 _c
372 1 316 -13 246 -13 _c
216 -13 186 -10 154 -5 _c
}_e{122 0 89 8 54 20 _c
54 113 _l
87 95 120 82 152 74 _c
184 65 216 61 248 61 _c
290 61 323 68 346 82 _c
368 96 380 117 380 144 _c
380 168 371 187 355 200 _c
339 213 303 226 247 238 _c
216 245 _l
160 257 119 275 95 299 _c
70 323 58 356 58 399 _c
58 450 76 490 112 518 _c
148 546 200 560 268 560 _c
301 560 332 557 362 552 _c
391 547 418 540 443 531 _c
}_e{_cl}_e}_d
/t{392 0 27 0 368 702 _sc
183 702 _m
183 547 _l
368 547 _l
368 477 _l
183 477 _l
183 180 _l
183 135 189 106 201 94 _c
213 81 238 75 276 75 _c
368 75 _l
368 0 _l
276 0 _l
206 0 158 13 132 39 _c
106 65 93 112 93 180 _c
93 477 _l
27 477 _l
27 547 _l
93 547 _l
93 702 _l
183 702 _l
_cl}_d
/u{634 0 85 -13 543 560 _sc
85 216 _m
85 547 _l
175 547 _l
175 219 _l
175 167 185 129 205 103 _c
225 77 255 64 296 64 _c
344 64 383 79 411 110 _c
439 141 453 183 453 237 _c
453 547 _l
543 547 _l
543 0 _l
453 0 _l
453 84 _l
431 50 405 26 377 10 _c
348 -5 315 -13 277 -13 _c
214 -13 166 6 134 45 _c
101 83 85 140 85 216 _c
311 560 _m
311 560 _l
_cl}_d
/v{592 0 30 0 562 547 _sc
30 547 _m
125 547 _l
296 88 _l
467 547 _l
562 547 _l
357 0 _l
235 0 _l
30 547 _l
_cl}_d
/x{592 0 29 0 559 547 _sc
549 547 _m
351 281 _l
559 0 _l
453 0 _l
294 215 _l
135 0 _l
29 0 _l
241 286 _l
47 547 _l
153 547 _l
298 352 _l
443 547 _l
549 547 _l
_cl}_d
/y{592 0 30 -207 562 547 _sc
322 -50 _m
296 -114 271 -157 247 -177 _c
223 -197 191 -207 151 -207 _c
79 -207 _l
79 -132 _l
132 -132 _l
156 -132 175 -126 189 -114 _c
203 -102 218 -75 235 -31 _c
251 9 _l
30 547 _l
125 547 _l
296 119 _l
467 547 _l
562 547 _l
322 -50 _l
_cl}_d
end readonly def

/BuildGlyph
 {exch begin
 CharStrings exch
 2 copy known not{pop /.notdef}if
 true 3 1 roll get exec
 end}_d

/BuildChar {
 1 index /Encoding get exch get
 1 index /BuildGlyph get exec
}_d

FontName currentdict end definefont pop
end
%%EndProlog
mpldict begin
-270 -108 translate
1152 1008 0 0 clipbox
gsave
0 0 m
1152 0 l
1152 1008 l
0 1008 l
cl
1.000 setgray
fill
grestore
gsave
44.04 151.23 m
1141.2 151.23 l
1141.2 980.4 l
44.04 980.4 l
cl
0.933 setgray
fill
grestore
gsave
1097 829.2 44.04 151.2 clipbox
93.910909 151.23 m
175.332801 151.23 l
175.332801 940.915714 l
93.910909 940.915714 l
cl
0.204 0.541 0.741 setrgbcolor
fill
grestore
gsave
1097 829.2 44.04 151.2 clipbox
195.688275 151.23 m
277.110167 151.23 l
277.110167 871.739851 l
195.688275 871.739851 l
cl
0.204 0.541 0.741 setrgbcolor
fill
grestore
gsave
1097 829.2 44.04 151.2 clipbox
297.46564 151.23 m
378.887532 151.23 l
378.887532 683.559885 l
297.46564 683.559885 l
cl
0.204 0.541 0.741 setrgbcolor
fill
grestore
gsave
1097 829.2 44.04 151.2 clipbox
399.243006 151.23 m
480.664898 151.23 l
480.664898 675.993775 l
399.243006 675.993775 l
cl
0.204 0.541 0.741 setrgbcolor
fill
grestore
gsave
1097 829.2 44.04 151.2 clipbox
501.020371 151.23 m
582.442263 151.23 l
582.442263 675.993775 l
501.020371 675.993775 l
cl
0.204 0.541 0.741 setrgbcolor
fill
grestore
gsave
1097 829.2 44.04 151.2 clipbox
602.797737 151.23 m
684.219629 151.23 l
684.219629 675.993775 l
602.797737 675.993775 l
cl
0.204 0.541 0.741 setrgbcolor
fill
grestore
gsave
1097 829.2 44.04 151.2 clipbox
704.575102 151.23 m
785.996994 151.23 l
785.996994 670.42728 l
704.575102 670.42728 l
cl
0.204 0.541 0.741 setrgbcolor
fill
grestore
gsave
1097 829.2 44.04 151.2 clipbox
806.352468 151.23 m
887.77436 151.23 l
887.77436 667.292749 l
806.352468 667.292749 l
cl
0.204 0.541 0.741 setrgbcolor
fill
grestore
gsave
1097 829.2 44.04 151.2 clipbox
908.129833 151.23 m
989.551725 151.23 l
989.551725 635.839348 l
908.129833 635.839348 l
cl
0.204 0.541 0.741 setrgbcolor
fill
grestore
gsave
1097 829.2 44.04 151.2 clipbox
1009.907199 151.23 m
1091.329091 151.23 l
1091.329091 585.416629 l
1009.907199 585.416629 l
cl
0.204 0.541 0.741 setrgbcolor
fill
grestore
0.500 setlinewidth
1 setlinejoin
0 setlinecap
[5.6 2.4] 0 setdash
0.698 setgray
gsave
1097 829.2 44.04 151.2 clipbox
134.621855 151.23 m
134.621855 980.4 l
stroke
grestore
0.800 setlinewidth
[] 0 setdash
0.000 setgray
gsave
/o {
gsave
newpath
translate
0.8 setlinewidth
1 setlinejoin
0 setlinecap
0 0 m
0 3.5 l

gsave
0.000 setgray
fill
grestore
stroke
grestore
} bind def
134.622 151.23 o
grestore
/DejaVuSans findfont
10.000 scalefont
setfont
gsave
137.239043 27.823750 translate
90.000000 rotate
0.000000 0.000000 m /d glyphshow
6.347656 0.000000 m /s glyphshow
11.557617 0.000000 m /t glyphshow
15.478516 0.000000 m /underscore glyphshow
20.478516 0.000000 m /h glyphshow
26.816406 0.000000 m /o glyphshow
32.934570 0.000000 m /s glyphshow
38.144531 0.000000 m /t glyphshow
42.065430 0.000000 m /underscore glyphshow
47.065430 0.000000 m /s glyphshow
52.275391 0.000000 m /a glyphshow
58.403320 0.000000 m /m glyphshow
68.144531 0.000000 m /e glyphshow
74.296875 0.000000 m /underscore glyphshow
79.296875 0.000000 m /s glyphshow
84.506836 0.000000 m /r glyphshow
88.618164 0.000000 m /v glyphshow
94.536133 0.000000 m /underscore glyphshow
99.536133 0.000000 m /r glyphshow
103.647461 0.000000 m /a glyphshow
109.775391 0.000000 m /t glyphshow
113.696289 0.000000 m /e glyphshow
grestore
0.500 setlinewidth
[5.6 2.4] 0 setdash
0.698 setgray
gsave
1097 829.2 44.04 151.2 clipbox
236.399221 151.23 m
236.399221 980.4 l
stroke
grestore
0.800 setlinewidth
[] 0 setdash
0.000 setgray
gsave
/o {
gsave
newpath
translate
0.8 setlinewidth
1 setlinejoin
0 setlinecap
0 0 m
0 3.5 l

gsave
0.000 setgray
fill
grestore
stroke
grestore
} bind def
236.399 151.23 o
grestore
gsave
239.016408 52.151875 translate
90.000000 rotate
0.000000 0.000000 m /d glyphshow
6.347656 0.000000 m /s glyphshow
11.557617 0.000000 m /t glyphshow
15.478516 0.000000 m /underscore glyphshow
20.478516 0.000000 m /h glyphshow
26.816406 0.000000 m /o glyphshow
32.934570 0.000000 m /s glyphshow
38.144531 0.000000 m /t glyphshow
42.065430 0.000000 m /underscore glyphshow
47.065430 0.000000 m /s glyphshow
52.275391 0.000000 m /r glyphshow
56.386719 0.000000 m /v glyphshow
62.304688 0.000000 m /underscore glyphshow
67.304688 0.000000 m /c glyphshow
72.802734 0.000000 m /o glyphshow
78.920898 0.000000 m /u glyphshow
85.258789 0.000000 m /n glyphshow
91.596680 0.000000 m /t glyphshow
grestore
0.500 setlinewidth
[5.6 2.4] 0 setdash
0.698 setgray
gsave
1097 829.2 44.04 151.2 clipbox
338.176586 151.23 m
338.176586 980.4 l
stroke
grestore
0.800 setlinewidth
[] 0 setdash
0.000 setgray
gsave
/o {
gsave
newpath
translate
0.8 setlinewidth
1 setlinejoin
0 setlinecap
0 0 m
0 3.5 l

gsave
0.000 setgray
fill
grestore
stroke
grestore
} bind def
338.177 151.23 o
grestore
gsave
340.653149 74.917500 translate
90.000000 rotate
0.000000 0.000000 m /s glyphshow
5.209961 0.000000 m /a glyphshow
11.337891 0.000000 m /m glyphshow
21.079102 0.000000 m /e glyphshow
27.231445 0.000000 m /underscore glyphshow
32.231445 0.000000 m /s glyphshow
37.441406 0.000000 m /r glyphshow
41.552734 0.000000 m /v glyphshow
47.470703 0.000000 m /underscore glyphshow
52.470703 0.000000 m /r glyphshow
56.582031 0.000000 m /a glyphshow
62.709961 0.000000 m /t glyphshow
66.630859 0.000000 m /e glyphshow
grestore
0.500 setlinewidth
[5.6 2.4] 0 setdash
0.698 setgray
gsave
1097 829.2 44.04 151.2 clipbox
439.953952 151.23 m
439.953952 980.4 l
stroke
grestore
0.800 setlinewidth
[] 0 setdash
0.000 setgray
gsave
/o {
gsave
newpath
translate
0.8 setlinewidth
1 setlinejoin
0 setlinecap
0 0 m
0 3.5 l

gsave
0.000 setgray
fill
grestore
stroke
grestore
} bind def
439.954 151.23 o
grestore
gsave
442.711764 119.495625 translate
90.000000 rotate
0.000000 0.000000 m /c glyphshow
5.498047 0.000000 m /o glyphshow
11.616211 0.000000 m /u glyphshow
17.954102 0.000000 m /n glyphshow
24.291992 0.000000 m /t glyphshow
grestore
0.500 setlinewidth
[5.6 2.4] 0 setdash
0.698 setgray
gsave
1097 829.2 44.04 151.2 clipbox
541.731317 151.23 m
541.731317 980.4 l
stroke
grestore
0.800 setlinewidth
[] 0 setdash
0.000 setgray
gsave
/o {
gsave
newpath
translate
0.8 setlinewidth
1 setlinejoin
0 setlinecap
0 0 m
0 3.5 l

gsave
0.000 setgray
fill
grestore
stroke
grestore
} bind def
541.731 151.23 o
grestore
gsave
544.207880 99.245625 translate
90.000000 rotate
0.000000 0.000000 m /s glyphshow
5.209961 0.000000 m /r glyphshow
9.321289 0.000000 m /v glyphshow
15.239258 0.000000 m /underscore glyphshow
20.239258 0.000000 m /c glyphshow
25.737305 0.000000 m /o glyphshow
31.855469 0.000000 m /u glyphshow
38.193359 0.000000 m /n glyphshow
44.531250 0.000000 m /t glyphshow
grestore
0.500 setlinewidth
[5.6 2.4] 0 setdash
0.698 setgray
gsave
1097 829.2 44.04 151.2 clipbox
643.508683 151.23 m
643.508683 980.4 l
stroke
grestore
0.800 setlinewidth
[] 0 setdash
0.000 setgray
gsave
/o {
gsave
newpath
translate
0.8 setlinewidth
1 setlinejoin
0 setlinecap
0 0 m
0 3.5 l

gsave
0.000 setgray
fill
grestore
stroke
grestore
} bind def
643.509 151.23 o
grestore
gsave
646.125870 72.401875 translate
90.000000 rotate
0.000000 0.000000 m /d glyphshow
6.347656 0.000000 m /s glyphshow
11.557617 0.000000 m /t glyphshow
15.478516 0.000000 m /underscore glyphshow
20.478516 0.000000 m /h glyphshow
26.816406 0.000000 m /o glyphshow
32.934570 0.000000 m /s glyphshow
38.144531 0.000000 m /t glyphshow
42.065430 0.000000 m /underscore glyphshow
47.065430 0.000000 m /c glyphshow
52.563477 0.000000 m /o glyphshow
58.681641 0.000000 m /u glyphshow
65.019531 0.000000 m /n glyphshow
71.357422 0.000000 m /t glyphshow
grestore
0.500 setlinewidth
[5.6 2.4] 0 setdash
0.698 setgray
gsave
1097 829.2 44.04 151.2 clipbox
745.286048 151.23 m
745.286048 980.4 l
stroke
grestore
0.800 setlinewidth
[] 0 setdash
0.000 setgray
gsave
/o {
gsave
newpath
translate
0.8 setlinewidth
1 setlinejoin
0 setlinecap
0 0 m
0 3.5 l

gsave
0.000 setgray
fill
grestore
stroke
grestore
} bind def
745.286 151.23 o
grestore
gsave
747.903236 111.870625 translate
90.000000 rotate
0.000000 0.000000 m /f glyphshow
3.520508 0.000000 m /l glyphshow
6.298828 0.000000 m /a glyphshow
12.426758 0.000000 m /g glyphshow
18.774414 0.000000 m /underscore glyphshow
23.774414 0.000000 m /S glyphshow
30.122070 0.000000 m /F glyphshow
grestore
0.500 setlinewidth
[5.6 2.4] 0 setdash
0.698 setgray
gsave
1097 829.2 44.04 151.2 clipbox
847.063414 151.23 m
847.063414 980.4 l
stroke
grestore
0.800 setlinewidth
[] 0 setdash
0.000 setgray
gsave
/o {
gsave
newpath
translate
0.8 setlinewidth
1 setlinejoin
0 setlinecap
0 0 m
0 3.5 l

gsave
0.000 setgray
fill
grestore
stroke
grestore
} bind def
847.063 151.23 o
grestore
gsave
849.680601 100.339375 translate
90.000000 rotate
0.000000 0.000000 m /s glyphshow
5.209961 0.000000 m /r glyphshow
9.321289 0.000000 m /c glyphshow
14.819336 0.000000 m /underscore glyphshow
19.819336 0.000000 m /b glyphshow
26.166992 0.000000 m /y glyphshow
32.084961 0.000000 m /t glyphshow
36.005859 0.000000 m /e glyphshow
42.158203 0.000000 m /s glyphshow
grestore
0.500 setlinewidth
[5.6 2.4] 0 setdash
0.698 setgray
gsave
1097 829.2 44.04 151.2 clipbox
948.840779 151.23 m
948.840779 980.4 l
stroke
grestore
0.800 setlinewidth
[] 0 setdash
0.000 setgray
gsave
/o {
gsave
newpath
translate
0.8 setlinewidth
1 setlinejoin
0 setlinecap
0 0 m
0 3.5 l

gsave
0.000 setgray
fill
grestore
stroke
grestore
} bind def
948.841 151.23 o
grestore
gsave
951.457967 99.683125 translate
90.000000 rotate
0.000000 0.000000 m /d glyphshow
6.347656 0.000000 m /s glyphshow
11.557617 0.000000 m /t glyphshow
15.478516 0.000000 m /underscore glyphshow
20.478516 0.000000 m /b glyphshow
26.826172 0.000000 m /y glyphshow
32.744141 0.000000 m /t glyphshow
36.665039 0.000000 m /e glyphshow
42.817383 0.000000 m /s glyphshow
grestore
0.500 setlinewidth
[5.6 2.4] 0 setdash
0.698 setgray
gsave
1097 829.2 44.04 151.2 clipbox
1050.618145 151.23 m
1050.618145 980.4 l
stroke
grestore
0.800 setlinewidth
[] 0 setdash
0.000 setgray
gsave
/o {
gsave
newpath
translate
0.8 setlinewidth
1 setlinejoin
0 setlinecap
0 0 m
0 3.5 l

gsave
0.000 setgray
fill
grestore
stroke
grestore
} bind def
1050.62 151.23 o
grestore
gsave
1053.235332 99.511250 translate
90.000000 rotate
0.000000 0.000000 m /l glyphshow
2.778320 0.000000 m /o glyphshow
8.896484 0.000000 m /g glyphshow
15.244141 0.000000 m /g glyphshow
21.591797 0.000000 m /e glyphshow
27.744141 0.000000 m /d glyphshow
34.091797 0.000000 m /underscore glyphshow
39.091797 0.000000 m /i glyphshow
41.870117 0.000000 m /n glyphshow
grestore
/DejaVuSans findfont
12.000 scalefont
setfont
gsave
566.346563 14.698750 translate
0.000000 rotate
0.000000 0.000000 m /F glyphshow
6.902344 0.000000 m /e glyphshow
14.285156 0.000000 m /a glyphshow
21.638672 0.000000 m /t glyphshow
26.343750 0.000000 m /u glyphshow
33.949219 0.000000 m /r glyphshow
38.882812 0.000000 m /e glyphshow
46.265625 0.000000 m /s glyphshow
grestore
0.500 setlinewidth
[5.6 2.4] 0 setdash
0.698 setgray
gsave
1097 829.2 44.04 151.2 clipbox
44.04 151.23 m
1141.2 151.23 l
stroke
grestore
0.800 setlinewidth
[] 0 setdash
0.000 setgray
gsave
/o {
gsave
newpath
translate
0.8 setlinewidth
1 setlinejoin
0 setlinecap
0 0 m
3.5 0 l

gsave
0.000 setgray
fill
grestore
stroke
grestore
} bind def
44.04 151.23 o
grestore
/DejaVuSans findfont
10.000 scalefont
setfont
gsave
34.180625 147.433125 translate
0.000000 rotate
0.000000 0.000000 m /zero glyphshow
grestore
0.500 setlinewidth
[5.6 2.4] 0 setdash
0.698 setgray
gsave
1097 829.2 44.04 151.2 clipbox
44.04 273.065989 m
1141.2 273.065989 l
stroke
grestore
0.800 setlinewidth
[] 0 setdash
0.000 setgray
gsave
/o {
gsave
newpath
translate
0.8 setlinewidth
1 setlinejoin
0 setlinecap
0 0 m
3.5 0 l

gsave
0.000 setgray
fill
grestore
stroke
grestore
} bind def
44.04 273.066 o
grestore
gsave
27.821250 269.269114 translate
0.000000 rotate
0.000000 0.000000 m /one glyphshow
6.362305 0.000000 m /zero glyphshow
grestore
0.500 setlinewidth
[5.6 2.4] 0 setdash
0.698 setgray
gsave
1097 829.2 44.04 151.2 clipbox
44.04 394.901978 m
1141.2 394.901978 l
stroke
grestore
0.800 setlinewidth
[] 0 setdash
0.000 setgray
gsave
/o {
gsave
newpath
translate
0.8 setlinewidth
1 setlinejoin
0 setlinecap
0 0 m
3.5 0 l

gsave
0.000 setgray
fill
grestore
stroke
grestore
} bind def
44.04 394.902 o
grestore
gsave
27.821250 391.105103 translate
0.000000 rotate
0.000000 0.000000 m /two glyphshow
6.362305 0.000000 m /zero glyphshow
grestore
0.500 setlinewidth
[5.6 2.4] 0 setdash
0.698 setgray
gsave
1097 829.2 44.04 151.2 clipbox
44.04 516.737968 m
1141.2 516.737968 l
stroke
grestore
0.800 setlinewidth
[] 0 setdash
0.000 setgray
gsave
/o {
gsave
newpath
translate
0.8 setlinewidth
1 setlinejoin
0 setlinecap
0 0 m
3.5 0 l

gsave
0.000 setgray
fill
grestore
stroke
grestore
} bind def
44.04 516.738 o
grestore
gsave
27.821250 512.941093 translate
0.000000 rotate
0.000000 0.000000 m /three glyphshow
6.362305 0.000000 m /zero glyphshow
grestore
0.500 setlinewidth
[5.6 2.4] 0 setdash
0.698 setgray
gsave
1097 829.2 44.04 151.2 clipbox
44.04 638.573957 m
1141.2 638.573957 l
stroke
grestore
0.800 setlinewidth
[] 0 setdash
0.000 setgray
gsave
/o {
gsave
newpath
translate
0.8 setlinewidth
1 setlinejoin
0 setlinecap
0 0 m
3.5 0 l

gsave
0.000 setgray
fill
grestore
stroke
grestore
} bind def
44.04 638.574 o
grestore
gsave
27.821250 634.777082 translate
0.000000 rotate
0.000000 0.000000 m /four glyphshow
6.362305 0.000000 m /zero glyphshow
grestore
0.500 setlinewidth
[5.6 2.4] 0 setdash
0.698 setgray
gsave
1097 829.2 44.04 151.2 clipbox
44.04 760.409946 m
1141.2 760.409946 l
stroke
grestore
0.800 setlinewidth
[] 0 setdash
0.000 setgray
gsave
/o {
gsave
newpath
translate
0.8 setlinewidth
1 setlinejoin
0 setlinecap
0 0 m
3.5 0 l

gsave
0.000 setgray
fill
grestore
stroke
grestore
} bind def
44.04 760.41 o
grestore
gsave
27.821250 756.613071 translate
0.000000 rotate
0.000000 0.000000 m /five glyphshow
6.362305 0.000000 m /zero glyphshow
grestore
0.500 setlinewidth
[5.6 2.4] 0 setdash
0.698 setgray
gsave
1097 829.2 44.04 151.2 clipbox
44.04 882.245935 m
1141.2 882.245935 l
stroke
grestore
0.800 setlinewidth
[] 0 setdash
0.000 setgray
gsave
/o {
gsave
newpath
translate
0.8 setlinewidth
1 setlinejoin
0 setlinecap
0 0 m
3.5 0 l

gsave
0.000 setgray
fill
grestore
stroke
grestore
} bind def
44.04 882.246 o
grestore
gsave
27.821250 878.449060 translate
0.000000 rotate
0.000000 0.000000 m /six glyphshow
6.362305 0.000000 m /zero glyphshow
grestore
/DejaVuSans findfont
12.000 scalefont
setfont
gsave
21.321250 519.400938 translate
90.000000 rotate
0.000000 0.000000 m /P glyphshow
7.236328 0.000000 m /e glyphshow
14.619141 0.000000 m /r glyphshow
19.552734 0.000000 m /c glyphshow
26.150391 0.000000 m /e glyphshow
33.533203 0.000000 m /n glyphshow
41.138672 0.000000 m /t glyphshow
45.843750 0.000000 m /a glyphshow
53.197266 0.000000 m /g glyphshow
60.814453 0.000000 m /e glyphshow
68.197266 0.000000 m /space glyphshow
72.011719 0.000000 m /parenleft glyphshow
76.693359 0.000000 m /percent glyphshow
88.095703 0.000000 m /parenright glyphshow
grestore
0 setlinejoin
2 setlinecap
[] 0 setdash
0.737 setgray
gsave
44.04 151.23 m
44.04 980.4 l
stroke
grestore
gsave
1141.2 151.23 m
1141.2 980.4 l
stroke
grestore
gsave
44.04 151.23 m
1141.2 151.23 l
stroke
grestore
gsave
44.04 980.4 m
1141.2 980.4 l
stroke
grestore
0.000 setgray
/DejaVuSans findfont
14.400 scalefont
setfont
gsave
438.065313 986.400000 translate
0.000000 rotate
0.000000 0.000000 m /F glyphshow
8.268433 0.000000 m /e glyphshow
17.112427 0.000000 m /a glyphshow
25.921326 0.000000 m /t glyphshow
31.557617 0.000000 m /u glyphshow
40.668335 0.000000 m /r glyphshow
46.578369 0.000000 m /e glyphshow
55.422363 0.000000 m /space glyphshow
59.991760 0.000000 m /f glyphshow
65.052490 0.000000 m /r glyphshow
70.962524 0.000000 m /e glyphshow
79.806519 0.000000 m /q glyphshow
88.931274 0.000000 m /u glyphshow
98.041992 0.000000 m /e glyphshow
106.885986 0.000000 m /n glyphshow
115.996704 0.000000 m /c glyphshow
123.900146 0.000000 m /y glyphshow
132.407227 0.000000 m /space glyphshow
136.976624 0.000000 m /i glyphshow
140.970459 0.000000 m /n glyphshow
150.081177 0.000000 m /space glyphshow
154.650574 0.000000 m /a glyphshow
163.459473 0.000000 m /d glyphshow
172.584229 0.000000 m /v glyphshow
181.091309 0.000000 m /e glyphshow
189.935303 0.000000 m /r glyphshow
195.845337 0.000000 m /s glyphshow
203.334656 0.000000 m /a glyphshow
212.143555 0.000000 m /r glyphshow
218.053589 0.000000 m /i glyphshow
222.047424 0.000000 m /a glyphshow
230.856323 0.000000 m /l glyphshow
234.850159 0.000000 m /space glyphshow
239.419556 0.000000 m /e glyphshow
248.263550 0.000000 m /x glyphshow
256.770630 0.000000 m /a glyphshow
265.579529 0.000000 m /m glyphshow
279.582520 0.000000 m /p glyphshow
288.707275 0.000000 m /l glyphshow
292.701111 0.000000 m /e glyphshow
301.545105 0.000000 m /s glyphshow
grestore

end
showpage
